{
  "page": 1,
  "total_results": 20011,
  "total_pages": 1001,
  "results": [
    {
      "vote_count": 1910,
      "id": 429617,
      "video": false,
      "vote_average": 7.8,
      "title": "スパイダーマン：ファー・フロム・ホーム",
      "popularity": 417.77,
      "poster_path": "/iyiXICmKjJieoa1a1Jmni7KGMUl.jpg",
      "original_language": "en",
      "original_title": "Spider-Man: Far from Home",
      "genre_ids": [
        28,
        12,
        878
      ],
      "backdrop_path": "/dihW2yTsvQlust7mSuAqJDtqW7k.jpg",
      "adult": false,
      "overview": "高校生のピーター・パーカー(トム・ホランド)は夏休みを迎え、親友のネッド(ジェイコブ・バタロン)やMJ(ゼンデイヤ)たちとヨーロッパへ旅行に行く。ところが、ピーターの前にS.H.I.E.L.D.の長官ニック・フューリー(サミュエル・L・ジャクソン)が現れ、彼にある任務を与える。",
      "release_date": "2019-06-28"
    },
    {
      "vote_count": 131,
      "id": 420818,
      "video": false,
      "vote_average": 6.4,
      "title": "The Lion King",
      "popularity": 259.876,
      "poster_path": "/dzBtMocZuJbjLOXvrl4zGYigDzh.jpg",
      "original_language": "en",
      "original_title": "The Lion King",
      "genre_ids": [
        12,
        16,
        10751,
        18,
        28
      ],
      "backdrop_path": "/1TUg5pO1VZ4B0Q1amk3OlXvlpXV.jpg",
      "adult": false,
      "overview": "",
      "release_date": "2019-07-12"
    },
    {
      "vote_count": 2559,
      "id": 399579,
      "video": false,
      "vote_average": 6.8,
      "title": "アリータ: バトル・エンジェル",
      "popularity": 231.842,
      "poster_path": "/qIDInIkvaU3PEYMbkg7oQfIKQeq.jpg",
      "original_language": "en",
      "original_title": "Alita: Battle Angel",
      "genre_ids": [
        28,
        878,
        53,
        12
      ],
      "backdrop_path": "/8RKBHHRqOMOLh5qW3sS6TSFTd8h.jpg",
      "adult": false,
      "overview": "数百年後の未来。スクラップの山の中から奇跡的に脳だけが無傷の状態で発見されたサイボーグの少女アリータは、サイバー医師のイド博士によって新たな体を与えられ、目を覚ます。しかし彼女は、自分の過去や今いる世界についてなど一切の記憶が失われていた。やがてアリータは、自分が300年前に失われたはずの最終兵器として作られたことを知り、そんな兵器としての彼女を破壊するため、次々と凶悪な殺人サイボーグが送り込まれてくる。アリータは、あどけない少女の外見とは裏腹の驚異的な格闘スキルをもって、迫り来る敵たちを圧倒していく。",
      "release_date": "2019-01-31"
    },
    {
      "vote_count": 1383,
      "id": 301528,
      "video": false,
      "vote_average": 7.8,
      "title": "Toy Story 4",
      "popularity": 146.319,
      "poster_path": "/fV8IBuRHisDcIBiMcIhRwev6DOJ.jpg",
      "original_language": "en",
      "original_title": "Toy Story 4",
      "genre_ids": [
        12,
        16,
        35,
        10751
      ],
      "backdrop_path": "/m67smI1IIMmYzCl9axvKNULVKLr.jpg",
      "adult": false,
      "overview": "",
      "release_date": "2019-06-19"
    },
    {
      "vote_count": 663,
      "id": 456740,
      "video": false,
      "vote_average": 5,
      "title": "ヘルボーイ",
      "popularity": 143.724,
      "poster_path": "/bk8LyaMqUtaQ9hUShuvFznQYQKR.jpg",
      "original_language": "en",
      "original_title": "Hellboy",
      "genre_ids": [
        28,
        12,
        14,
        27,
        878
      ],
      "backdrop_path": "/5BkSkNtfrnTuKOtTaZhl8avn4wU.jpg",
      "adult": false,
      "overview": "",
      "release_date": "2019-04-10"
    },
    {
      "vote_count": 2467,
      "id": 287947,
      "video": false,
      "vote_average": 7.1,
      "title": "シャザム！",
      "popularity": 138.9,
      "poster_path": "/2o7DEpa2Im94Y2XGP9TTMfuY6SX.jpg",
      "original_language": "en",
      "original_title": "Shazam!",
      "genre_ids": [
        28,
        35,
        14
      ],
      "backdrop_path": "/bi4jh0Kt0uuZGsGJoUUfqmbrjQg.jpg",
      "adult": false,
      "overview": "思春期を迎えたビリーは、魔術師にヒーローの才能を見いだされ、世界の救世主に選ばれる。「シャザム!」という言葉を唱えると、ソロモンの知力、ヘラクレスの強さ、アトラスのスタミナなど六つのパワーを持つ筋骨隆々のヒーローに変身する。だが、ビリーの心は少年のままだった。",
      "release_date": "2019-03-23"
    },
    {
      "vote_count": 1526,
      "id": 458156,
      "video": false,
      "vote_average": 7.1,
      "title": "ジョン・ウィック パラベラム",
      "popularity": 118.052,
      "poster_path": "/gBa0Y3lB4FWL4nnCDPmqVHVKHDl.jpg",
      "original_language": "en",
      "original_title": "John Wick: Chapter 3 – Parabellum",
      "genre_ids": [
        80,
        28,
        53
      ],
      "backdrop_path": "/vVpEOvdxVBP2aV166j5Xlvb5Cdc.jpg",
      "adult": false,
      "overview": "前作で怒りのあまりに、一流殺し屋が集う「コンチネンタルホテル」の掟である「ホテル内で殺しはおこなってはいけない」を破ってしまったジョン。聖域から追放された彼を待っていたのは、組織による粛清の包囲網だった。刺客たちがさまざまな殺しのスキルを駆使し、賞金首となったジョンに襲いかかる。傷だらけとなったジョンは、かつて「血の契約」を交わしたソフィアに協力を求め、カサブランカへと飛ぶ。",
      "release_date": "2019-05-15"
    },
    {
      "vote_count": 21,
      "id": 566555,
      "video": false,
      "vote_average": 5,
      "title": "名探偵コナン 紺青の拳（フィスト）",
      "popularity": 110.074,
      "poster_path": "/1GyvpwvgswOrHvxjnw2FBLNkTyo.jpg",
      "original_language": "ja",
      "original_title": "名探偵コナン 紺青の拳（フィスト）",
      "genre_ids": [
        16,
        28,
        18,
        9648,
        35
      ],
      "backdrop_path": "/wf6VDSi4aFCZfuD8sX8JAKLfJ5m.jpg",
      "adult": false,
      "overview": "19世紀末に海賊船とともにシンガポールの海底に沈んだとされるブルーサファイア「紺青の拳」を、現地の富豪が回収しようとした矢先、マリーナベイ・サンズで殺人事件が発生。その現場には、怪盗キッドの血塗られた予告状が残されていた。同じころ、シンガポールで開催される空手トーナメントを観戦するため、毛利蘭と鈴木園子が現地を訪れていた。パスポートをもっていないコナンは日本で留守番のはずだったが、彼を利用しようとするキッドの手により強制的にシンガポールに連れてこられてしまう。",
      "release_date": "2019-04-12"
    },
    {
      "vote_count": 6369,
      "id": 299537,
      "video": false,
      "vote_average": 7,
      "title": "キャプテン・マーベル",
      "popularity": 99.574,
      "poster_path": "/2mtjg8AGuSGaTab3VG2Vx60tibR.jpg",
      "original_language": "en",
      "original_title": "Captain Marvel",
      "genre_ids": [
        28,
        12,
        878
      ],
      "backdrop_path": "/w2PMyoyLU22YvrGK3smVM9fW1jj.jpg",
      "adult": false,
      "overview": "1995年、ロサンゼルスのビデオショップに、突然正体不明の女性が空から降ってくる。彼女には驚くべきパワーが備わっていたが、全く覚えていない“記憶”がフラッシュバックすることが悩みだった。その記憶にはある秘密が隠されており、それを狙う敵がいた。彼女は、後にアベンジャーズを結成するニック・フューリーと共に戦いに身を投じることになる。",
      "release_date": "2019-03-06"
    },
    {
      "vote_count": 55,
      "id": 511987,
      "video": false,
      "vote_average": 6.2,
      "title": "Crawl",
      "popularity": 97.089,
      "poster_path": "/mKxpYRIrCZLxZjNqpocJ2RdQW8v.jpg",
      "original_language": "en",
      "original_title": "Crawl",
      "genre_ids": [
        53,
        28,
        27
      ],
      "backdrop_path": "/2cAce3oD0Hh7f5XxuXmNXa1WiuZ.jpg",
      "adult": false,
      "overview": "",
      "release_date": "2019-07-11"
    },
    {
      "vote_count": 7737,
      "id": 299534,
      "video": false,
      "vote_average": 8.4,
      "title": "アベンジャーズ／エンドゲーム",
      "popularity": 92.723,
      "poster_path": "/pJkCKpWz2lDLD9AxyjP7p9LZTZq.jpg",
      "original_language": "en",
      "original_title": "Avengers: Endgame",
      "genre_ids": [
        12,
        878,
        28
      ],
      "backdrop_path": "/7RyHsO4yDXtBv1zUU3mTpHeQ0d5.jpg",
      "adult": false,
      "overview": "破格のメガヒットによって映画史を塗り替え続ける「アベンジャーズ」シリーズが、この春ついに完結。最凶最悪の敵\"サノス\"によって、人類の半分が消し去られ、最強チーム\"アベンジャーズ\"も崩壊してしまった。はたして失われた35億の人々と仲間を取り戻す方法はあるのか？ 大逆転へのわずかな希望を信じて再び集結したアイアンマン、キャプテン・アメリカ、ソーたちに残されたのは、最強の絆だけ──。\"今はここにいない\"仲間のために、最後にして最大の逆襲が始まる！",
      "release_date": "2019-04-24"
    },
    {
      "vote_count": 7734,
      "id": 920,
      "video": false,
      "vote_average": 6.7,
      "title": "カーズ",
      "popularity": 88.921,
      "poster_path": "/cIts4DqQ93JJzxqtudrTEJLgpgs.jpg",
      "original_language": "en",
      "original_title": "Cars",
      "genre_ids": [
        16,
        12,
        35,
        10751
      ],
      "backdrop_path": "/a1MlbLBk5Sy6YvMbSuKfwGlDVlb.jpg",
      "adult": false,
      "overview": "真っ赤でピカピカなボディがトレードマークのレース・カー“ライトニング・マックィーン”は、レースでチャンピオンを目指す人気者。ある日ルート66号線沿いにある田舎町“ラジエイター・スプリングス”に立ち寄り、住民たちと触れ合ったことで、自分の人生には何かが失われていたことに気が付く。",
      "release_date": "2006-06-08"
    },
    {
      "vote_count": 1550,
      "id": 329996,
      "video": false,
      "vote_average": 6.5,
      "title": "ダンボ",
      "popularity": 85.439,
      "poster_path": "/8TtOquIcvl0icBmSedCBUBsfFvV.jpg",
      "original_language": "en",
      "original_title": "Dumbo",
      "genre_ids": [
        12,
        10751,
        14
      ],
      "backdrop_path": "/5tFt6iuGnKapHl5tw0X0cKcnuVo.jpg",
      "adult": false,
      "overview": "サーカスで生まれた象のダンボは、耳が大き過ぎると笑われていた。だがサーカスの元スター、ホルト(コリン・ファレル)の娘ミリー(ニコ・パーカー)と息子のジョー(フィンリー・ホビンズ)は、家族の一員としてダンボと接していた。ある日ミリーとジョーは、偶然ダンボが空を飛べることを知る。そのことが、ほかのサーカスを経営するヴァンデヴァー(マイケル・キートン)の耳に入る。",
      "release_date": "2019-03-27"
    },
    {
      "vote_count": 14410,
      "id": 299536,
      "video": false,
      "vote_average": 8.3,
      "title": "アベンジャーズ／インフィニティ・ウォー",
      "popularity": 83.514,
      "poster_path": "/m3kqIS6uuEiWIibNk7RiKNezDzg.jpg",
      "original_language": "en",
      "original_title": "Avengers: Infinity War",
      "genre_ids": [
        12,
        28,
        14
      ],
      "backdrop_path": "/bOGkgRGdhrBYJSLpXaxhXVstddV.jpg",
      "adult": false,
      "overview": "宇宙において最凶・最悪の存在であるサノスが、自身の野望の実現に向けて立ち上がる。それは宇宙で生きている者の半分を葬り去り、“バランスの取れた宇宙”を実現するというもの。サノスはそのために、6つそろえればその野望を叶えることができる“インフィニティ・ストーン”を集め始める。サノスはまず、ソーとハルクが乗ったアスガルドの宇宙船を襲い、やがてドクター・ストレンジらがいる地球のニューヨークにも襲い掛かる。",
      "release_date": "2018-04-25"
    },
    {
      "vote_count": 2247,
      "id": 420817,
      "video": false,
      "vote_average": 7.1,
      "title": "アラジン",
      "popularity": 82.63,
      "poster_path": "/aaFg8xedEr1w5ML4tJUGX3VblBU.jpg",
      "original_language": "en",
      "original_title": "Aladdin",
      "genre_ids": [
        12,
        14,
        10749,
        35,
        10751
      ],
      "backdrop_path": "/v4yVTbbl8dE1UP2dWu5CLyaXOku.jpg",
      "adult": false,
      "overview": "砂漠の王国アグラバーの女王ジャスミンは、娘の結婚を急がせたいサルタン国王によって他国の王子を紹介されては、王位ばかりに目がくらみ彼女自身を全く見ていない彼らに呆れかえっていた。愛ある結婚を望むジャスミンは、変装して王宮を抜け出す。そして、アグラバーの市場で盗みを働く、純粋な心の持ち主である貧乏な青年アラジンと出会い助けられる。",
      "release_date": "2019-05-22"
    },
    {
      "vote_count": 68,
      "id": 531503,
      "video": false,
      "vote_average": 6,
      "title": "Point Blank",
      "popularity": 78.918,
      "poster_path": "/weAvkxl0dnPevIKD8fwHjiOi6tc.jpg",
      "original_language": "en",
      "original_title": "Point Blank",
      "genre_ids": [
        28,
        53
      ],
      "backdrop_path": "/9HyNgy6xYikHRP3veDN26AwCLsB.jpg",
      "adult": false,
      "overview": "",
      "release_date": "2019-07-12"
    },
    {
      "vote_count": 10372,
      "id": 245891,
      "video": false,
      "vote_average": 7.2,
      "title": "ジョン・ウィック",
      "popularity": 77.876,
      "poster_path": "/sNALfZAvvmwu3kVZY0yv6sy7LWT.jpg",
      "original_language": "en",
      "original_title": "John Wick",
      "genre_ids": [
        28,
        53
      ],
      "backdrop_path": "/mFb0ygcue4ITixDkdr7wm1Tdarx.jpg",
      "adult": false,
      "overview": "伝説的な暗殺者として裏社会にその名をとどろかせるも、殺しの仕事から手を引いたジョン・ウィック。暴力から遠く慣れた毎日に安らぎを覚えていた彼だったが、それをロシアン・マフィアによって奪われる。怒りと憎しみに支配された彼は、封印していた殺しのスキルをよみがえらせ、ロシアン・マフィアへのリベンジを果たすことを決意する。",
      "release_date": "2014-10-22"
    },
    {
      "vote_count": 1487,
      "id": 537915,
      "video": false,
      "vote_average": 5.9,
      "title": "After",
      "popularity": 75.906,
      "poster_path": "/u3B2YKUjWABcxXZ6Nm9h10hLUbh.jpg",
      "original_language": "en",
      "original_title": "After",
      "genre_ids": [
        18,
        10749
      ],
      "backdrop_path": "/997ToEZvF2Obp9zNZbY5ELVnmrW.jpg",
      "adult": false,
      "overview": "",
      "release_date": "2019-04-11"
    },
    {
      "vote_count": 9,
      "id": 553100,
      "video": false,
      "vote_average": 6,
      "title": "Wild and Free",
      "popularity": 74.651,
      "poster_path": "/jLGNqaymD0ygyhafhv5fM3nXcge.jpg",
      "original_language": "tl",
      "original_title": "Wild and Free",
      "genre_ids": [
        18
      ],
      "backdrop_path": "/9v4nPAyVvtGONV5NtPkDHA9bczS.jpg",
      "adult": false,
      "overview": "",
      "release_date": "2018-10-10"
    },
    {
      "vote_count": 0,
      "id": 511161,
      "video": false,
      "vote_average": 0,
      "title": "வெண்ணிலா கபடிகுழு 2",
      "popularity": 72.307,
      "poster_path": "/m3KwlHlh24fssAh11EqkCwlTJiX.jpg",
      "original_language": "ta",
      "original_title": "வெண்ணிலா கபடிகுழு 2",
      "genre_ids": [
        18
      ],
      "backdrop_path": "/yzupY5G8ydZ4BxsScxB1UchL5vV.jpg",
      "adult": false,
      "overview": "",
      "release_date": "2019-07-12"
    }
  ]
}